#lines started by # are ignored
#id label shape color
1 John s 000_255_000
2 Smith s 000_255_000
3 Charle s 000_255_000
4 Brown s 000_255_000
5 Johnny s 000_255_000
6 Harry s 000_255_000
7 Bruce s 000_255_000
8 Mathew s 000_255_000
9 **Willian s 000_255_000
11 Bill s 000_255_000
12 Mark s 000_255_000
14 Philip s 000_255_000
15 Johnson s 000_255_000
16 Paul s 000_255_000
17 **David d 255_000_000
19 Charlote s 000_255_000
13 Christian s 000_255_000
18 Steve s 000_255_000
21 Sebastian s 000_255_000
23 Fabian s 000_255_000
24 Bernard s 000_255_000
25 Mary s 000_255_000
26 Joe s 000_255_000
28 **Bart d 255_000_000
29 Debby s 000_255_000
22 Johanson s 000_255_000
27 Michael s 000_255_000
31 Homer s 000_255_000
32 Stew s 000_255_000
34 **Montgomery d 255_000_000
35 George s 000_255_000
36 Marty s 000_255_000
37 Loraine s 000_255_000
39 Adam s 000_255_000
33 Stephan s 000_255_000
38 Phill s 000_255_000
41 Andrew s 000_255_000
42 Peter s 000_255_000
44 Jennifer s 000_255_000
45 Alexander s 000_255_000
47 Thomas s 000_255_000
48 Jim s 000_255_000
49 **Alfred d 255_000_000
43 Robert s 000_255_000
46 Hector s 000_255_000
51 Stefano s 000_255_000
53 **Raymond d 255_000_000
54 Jeffrey s 000_255_000
55 Daniel s 000_255_000
57 Abraham s 000_255_000
58 Nick s 000_255_000
59 Joel s 000_255_000
52 Dimitris s 000_255_000
56 Richard s 000_255_000
61 **Serge s 000_255_000
62 Leo s 000_255_000
63 Eric s 000_255_000
64 Enrico s 000_255_000
65 Barbara s 000_255_000
66 Patrick s 000_255_000
67 Randy s 000_255_000
68 Stanley s 000_255_000
69 Gerhard s 000_255_000
71 Laura s 000_255_000
73 **Yannis d 255_000_000
74 Jose s 000_255_000
75 Ronald s 000_255_000
76 Donald s 000_255_000
77 Maurice s 000_255_000
78 Dennis s 000_255_000
79 Ben s 000_255_000
72 Yuri s 000_255_000
81 **Victor d 255_000_000
82 Carl s 000_255_000
83 Garth s 000_255_000
84 Leonidas s 000_255_000
85 Carson s 000_255_000
86 Alberto s 000_255_000
87 Daryl s 000_255_000
88 Sharon s 000_255_000
89 Catherine s 000_255_000
