#lines started by # are ignored
#from to weight
34 9 35
32 9 3
31 9 1
32 6 1
31 1 1
34 49 31
34 48 12
34 45 6
33 47 1
32 44 2
34 53 6
31 55 1
34 61 15
36 68 1
37 65 2
34 73 2
34 81 3
