#lines started by # are ignored
#from to weight
21 23 3
21 24 4
21 25 2
21 26 1
21 28 6
21 29 3
22 23 1
22 24 1
22 26 3
22 28 4
22 29 4
23 24 2
23 25 3
23 27 3
23 28 4
23 29 1
24 25 1
24 27 5
24 28 4
25 26 2
25 27 1
25 28 4
25 29 1
26 27 2
26 28 3
27 28 1
27 29 2
28 29 4
